Bioreactor time-course analysis
…
OTUs

## Warning: The `printer` argument is deprecated as of rlang 0.3.0.
## This warning is displayed once per session.

## Warning: Column `molecule` joining factor and character vector, coercing
## into character vector

## Warning: `list_len()` is deprecated as of rlang 0.2.0.
## Please use `new_list()` instead.
## This warning is displayed once per session.

## Joining, by = "molecule"

## # A tibble: 51 x 3
## # Groups:   molecule [?]
##    molecule model_used    MSE
##    <chr>    <fct>       <dbl>
##  1 OTU_1    0          0.0750
##  2 OTU_10   1          0.0235
##  3 OTU_107  0          3.42  
##  4 OTU_11   0          0.0553
##  5 OTU_13   1          0.0534
##  6 OTU_130  1          0.377 
##  7 OTU_14   0          0.0114
##  8 OTU_15   0          0.267 
##  9 OTU_16   0          0.0820
## 10 OTU_169  1          0.162 
## # ... with 41 more rows
…
